<?xml version="1.0" encoding="UTF-8" standalone="no"?>
<!-- Created with Inkscape (http://www.inkscape.org/) -->

<svg
   xmlns:dc="http://purl.org/dc/elements/1.1/"
   xmlns:cc="http://creativecommons.org/ns#"
   xmlns:rdf="http://www.w3.org/1999/02/22-rdf-syntax-ns#"
   xmlns:svg="http://www.w3.org/2000/svg"
   xmlns="http://www.w3.org/2000/svg"
   xmlns:xlink="http://www.w3.org/1999/xlink"
   xmlns:sodipodi="http://sodipodi.sourceforge.net/DTD/sodipodi-0.dtd"
   xmlns:inkscape="http://www.inkscape.org/namespaces/inkscape"
   width="303"
   height="395.71429"
   id="svg2"
   version="1.1"
   inkscape:version="0.48.2 r9819"
   sodipodi:docname="pta-line.svg"
   inkscape:export-filename="/home/silwol/Desktop/wiki-graphics/pta-line.png"
   inkscape:export-xdpi="22.743254"
   inkscape:export-ydpi="22.743254">
  <defs
     id="defs4">
    <linearGradient
       id="linearGradient3852">
      <stop
         style="stop-color:#babab8;stop-opacity:1;"
         offset="0"
         id="stop3854" />
      <stop
         id="stop3862"
         offset="0.19428572"
         style="stop-color:#4e4e4c;stop-opacity:1;" />
      <stop
         id="stop3860"
         offset="0.5"
         style="stop-color:#4e4e4c;stop-opacity:1;" />
      <stop
         style="stop-color:#a3a49f;stop-opacity:1;"
         offset="0.59142858"
         id="stop3890" />
      <stop
         id="stop3912"
         offset="0.87159187"
         style="stop-color:#a3a49f;stop-opacity:1;" />
      <stop
         style="stop-color:#0a0f12;stop-opacity:1;"
         offset="1"
         id="stop3856" />
    </linearGradient>
    <linearGradient
       id="linearGradient3818">
      <stop
         style="stop-color:#757575;stop-opacity:1;"
         offset="0"
         id="stop3820" />
      <stop
         style="stop-color:#bbbdbc;stop-opacity:1;"
         offset="1"
         id="stop3822" />
    </linearGradient>
    <linearGradient
       id="linearGradient3810">
      <stop
         style="stop-color:#40403f;stop-opacity:1;"
         offset="0"
         id="stop3812" />
      <stop
         style="stop-color:#0a0f12;stop-opacity:1;"
         offset="1"
         id="stop3814" />
    </linearGradient>
    <linearGradient
       inkscape:collect="always"
       xlink:href="#linearGradient3810"
       id="linearGradient3816"
       x1="260.5"
       y1="724.86218"
       x2="282.5"
       y2="724.86218"
       gradientUnits="userSpaceOnUse" />
    <linearGradient
       inkscape:collect="always"
       xlink:href="#linearGradient3818"
       id="linearGradient3824"
       x1="267.5"
       y1="713.36218"
       x2="275.5"
       y2="713.36218"
       gradientUnits="userSpaceOnUse" />
    <linearGradient
       inkscape:collect="always"
       xlink:href="#linearGradient3818"
       id="linearGradient3838"
       gradientUnits="userSpaceOnUse"
       x1="267.5"
       y1="713.36218"
       x2="275.5"
       y2="713.36218" />
    <linearGradient
       inkscape:collect="always"
       xlink:href="#linearGradient3810"
       id="linearGradient3840"
       gradientUnits="userSpaceOnUse"
       x1="260.5"
       y1="724.86218"
       x2="282.5"
       y2="724.86218" />
    <linearGradient
       inkscape:collect="always"
       xlink:href="#linearGradient3818"
       id="linearGradient3842"
       gradientUnits="userSpaceOnUse"
       x1="267.5"
       y1="713.36218"
       x2="275.5"
       y2="713.36218" />
    <linearGradient
       inkscape:collect="always"
       xlink:href="#linearGradient3810"
       id="linearGradient3844"
       gradientUnits="userSpaceOnUse"
       x1="260.5"
       y1="724.86218"
       x2="282.5"
       y2="724.86218" />
    <linearGradient
       inkscape:collect="always"
       xlink:href="#linearGradient3852"
       id="linearGradient3888"
       x1="324.5"
       y1="524.36218"
       x2="375.5"
       y2="524.36218"
       gradientUnits="userSpaceOnUse" />
    <linearGradient
       inkscape:collect="always"
       xlink:href="#linearGradient3852"
       id="linearGradient3920"
       x1="324.5"
       y1="547.86218"
       x2="375.5"
       y2="547.86218"
       gradientUnits="userSpaceOnUse" />
    <linearGradient
       inkscape:collect="always"
       xlink:href="#linearGradient3852"
       id="linearGradient3936"
       x1="336.5"
       y1="567.36218"
       x2="365.5"
       y2="567.36218"
       gradientUnits="userSpaceOnUse" />
  </defs>
  <sodipodi:namedview
     id="base"
     pagecolor="#ffffff"
     bordercolor="#666666"
     borderopacity="1.0"
     inkscape:pageopacity="0.0"
     inkscape:pageshadow="2"
     inkscape:zoom="0.98994948"
     inkscape:cx="148.11272"
     inkscape:cy="204.78473"
     inkscape:document-units="px"
     inkscape:current-layer="layer1"
     showgrid="true"
     inkscape:window-width="952"
     inkscape:window-height="1029"
     inkscape:window-x="960"
     inkscape:window-y="26"
     inkscape:window-maximized="0"
     fit-margin-top="0"
     fit-margin-left="0"
     fit-margin-right="0"
     fit-margin-bottom="0">
    <inkscape:grid
       type="xygrid"
       id="grid3788"
       empspacing="5"
       visible="true"
       enabled="true"
       snapvisiblegridlinesonly="true" />
  </sodipodi:namedview>
  <metadata
     id="metadata7">
    <rdf:RDF>
      <cc:Work
         rdf:about="">
        <dc:format>image/svg+xml</dc:format>
        <dc:type
           rdf:resource="http://purl.org/dc/dcmitype/StillImage" />
        <dc:title></dc:title>
      </cc:Work>
    </rdf:RDF>
  </metadata>
  <g
     inkscape:label="Ebene 1"
     inkscape:groupmode="layer"
     id="layer1"
     transform="translate(-234,-359.6479)">
    <path
       style="fill:#bcbabd;fill-opacity:1;stroke:#000000;stroke-width:4;stroke-linecap:round;stroke-linejoin:round;stroke-miterlimit:4;stroke-opacity:1;stroke-dasharray:none"
       d="m 377,505.36218 -141,-13 24,-107.85714 9,-8.14286 125,2 6,9 z"
       id="path2998"
       inkscape:connector-curvature="0"
       sodipodi:nodetypes="ccccccc" />
    <path
       style="fill:#f1efda;fill-opacity:1;stroke:#000000;stroke-width:4;stroke-linecap:round;stroke-linejoin:round;stroke-miterlimit:4;stroke-opacity:1;stroke-dasharray:none"
       d="m 394,378.36218 132,-15 8,7 -134,17 z"
       id="path3000"
       inkscape:connector-curvature="0"
       sodipodi:nodetypes="ccccc" />
    <path
       style="fill:#ededed;fill-opacity:1;stroke:#000000;stroke-width:4;stroke-linecap:round;stroke-linejoin:round;stroke-miterlimit:4;stroke-opacity:1;stroke-dasharray:none"
       d="M 269,376.36218 420.71429,361.6479 526,363.36218 l -132,15 z"
       id="path3002"
       inkscape:connector-curvature="0"
       sodipodi:nodetypes="ccccc" />
    <path
       style="fill:#69696b;fill-opacity:1;stroke:#000000;stroke-width:4;stroke-linecap:round;stroke-linejoin:round;stroke-miterlimit:4;stroke-opacity:1;stroke-dasharray:none"
       d="m 240,597.36218 102,-33 129,14 -90,42 z"
       id="path3008"
       inkscape:connector-curvature="0"
       sodipodi:nodetypes="ccccc" />
    <path
       style="fill:#96959a;fill-opacity:1;stroke:#000000;stroke-width:4;stroke-linecap:round;stroke-linejoin:round;stroke-miterlimit:4;stroke-opacity:1;stroke-dasharray:none"
       d="m 342,564.36218 0,-44 40,6 89,-27 0,79 z"
       id="path3010"
       inkscape:connector-curvature="0"
       sodipodi:nodetypes="cccccc" />
    <g
       id="g3790"
       transform="translate(-15,-1.9999974)"
       style="stroke-width:4;stroke-linecap:round;stroke-linejoin:round;stroke-miterlimit:4;stroke-dasharray:none">
      <path
         sodipodi:nodetypes="ccccc"
         inkscape:connector-curvature="0"
         id="path3012"
         d="m 268,707.36218 0,12 7,0 0,-12 z"
         style="fill:url(#linearGradient3824);fill-opacity:1;stroke:#000000;stroke-width:4;stroke-linecap:round;stroke-linejoin:round;stroke-miterlimit:4;stroke-opacity:1;stroke-dasharray:none" />
      <path
         sodipodi:nodetypes="ccccccccc"
         inkscape:connector-curvature="0"
         id="path3018"
         d="m 268,719.36218 -7,3 0,5 7,3 7,0 7,-3 0,-5 -7,-3 z"
         style="fill:url(#linearGradient3816);fill-opacity:1;stroke:#000000;stroke-width:4;stroke-linecap:round;stroke-linejoin:round;stroke-miterlimit:4;stroke-opacity:1;stroke-dasharray:none" />
    </g>
    <path
       style="fill:#10a4a6;fill-opacity:1;stroke:#000000;stroke-width:4;stroke-linecap:round;stroke-linejoin:round;stroke-miterlimit:4;stroke-opacity:1;stroke-dasharray:none"
       d="m 283,393.36218 -17,78 90,6 17,-81 z"
       id="path3806"
       inkscape:connector-curvature="0" />
    <g
       id="g3826"
       transform="translate(242,-56.999997)"
       style="stroke-width:4;stroke-linecap:round;stroke-linejoin:round;stroke-miterlimit:4;stroke-dasharray:none">
      <path
         style="fill:url(#linearGradient3842);fill-opacity:1;stroke:#000000;stroke-width:4;stroke-linecap:round;stroke-linejoin:round;stroke-miterlimit:4;stroke-opacity:1;stroke-dasharray:none"
         d="m 268,707.36218 0,12 7,0 0,-12 z"
         id="path3828"
         inkscape:connector-curvature="0"
         sodipodi:nodetypes="ccccc" />
      <path
         style="fill:url(#linearGradient3844);fill-opacity:1;stroke:#000000;stroke-width:4;stroke-linecap:round;stroke-linejoin:round;stroke-miterlimit:4;stroke-opacity:1;stroke-dasharray:none"
         d="m 268,719.36218 -7,3 0,5 7,3 7,0 7,-3 0,-5 -7,-3 z"
         id="path3830"
         inkscape:connector-curvature="0"
         sodipodi:nodetypes="ccccccccc" />
    </g>
    <g
       id="g3832"
       transform="translate(105,23.000003)"
       style="stroke-width:4;stroke-linecap:round;stroke-linejoin:round;stroke-miterlimit:4;stroke-dasharray:none">
      <path
         sodipodi:nodetypes="ccccc"
         inkscape:connector-curvature="0"
         id="path3834"
         d="m 268,707.36218 0,12 7,0 0,-12 z"
         style="fill:url(#linearGradient3838);fill-opacity:1;stroke:#000000;stroke-width:4;stroke-linecap:round;stroke-linejoin:round;stroke-miterlimit:4;stroke-opacity:1;stroke-dasharray:none" />
      <path
         sodipodi:nodetypes="ccccccccc"
         inkscape:connector-curvature="0"
         id="path3836"
         d="m 268,719.36218 -7,3 0,5 7,3 7,0 7,-3 0,-5 -7,-3 z"
         style="fill:url(#linearGradient3840);fill-opacity:1;stroke:#000000;stroke-width:4;stroke-linecap:round;stroke-linejoin:round;stroke-miterlimit:4;stroke-opacity:1;stroke-dasharray:none" />
    </g>
    <path
       style="fill:#9f9d9e;fill-opacity:1;stroke:#000000;stroke-width:4;stroke-linecap:round;stroke-linejoin:round;stroke-miterlimit:4;stroke-opacity:1;stroke-dasharray:none"
       d="m 381,734.36218 -141,-32 0,-105 141,23 z"
       id="path3006"
       inkscape:connector-curvature="0"
       sodipodi:nodetypes="ccccc" />
    <path
       style="fill:#cfd0d2;fill-opacity:1;stroke:#000000;stroke-width:4;stroke-linecap:round;stroke-linejoin:round;stroke-miterlimit:4;stroke-opacity:1;stroke-dasharray:none"
       d="m 381,620.36218 0,114 154,-92.71428 -1,-271.28572 -134,17 -23,118 5,21 89,-27 0,79 z"
       id="path2996"
       inkscape:connector-curvature="0"
       sodipodi:nodetypes="cccccccccc" />
    <path
       style="fill:url(#linearGradient3936);fill-opacity:1;stroke:#000000;stroke-width:4;stroke-linecap:round;stroke-linejoin:round;stroke-miterlimit:4;stroke-opacity:1;stroke-dasharray:none"
       d="m 337,563.36218 0,6 c 0,0 1,2 14,2 13,0 14,-2 14,-2 l 0,-6 c 0,0 -2,2 -14,2 -12,0 -14,-2 -14,-2 z"
       id="path3846"
       inkscape:connector-curvature="0"
       sodipodi:nodetypes="ccsccsc" />
    <path
       style="fill:url(#linearGradient3920);fill-opacity:1;stroke:#000000;stroke-width:4;stroke-linecap:round;stroke-linejoin:round;stroke-miterlimit:4;stroke-opacity:1;stroke-dasharray:none"
       d="m 325,530.36218 12,33 c 0,0 1,2 14,2 13,0 14,-2 14,-2 l 10,-32 c 0,0 -12,1 -26,1 -14,0 -24,-2 -24,-2 z"
       id="path3848"
       inkscape:connector-curvature="0" />
    <path
       style="fill:url(#linearGradient3888);fill-opacity:1;stroke:#000000;stroke-width:4;stroke-linecap:round;stroke-linejoin:round;stroke-miterlimit:4;stroke-opacity:1;stroke-dasharray:none"
       d="m 325,530.36218 0,-14 50,0 0,15 c 0,0 -15,1 -25,1 -10,0 -25,-2 -25,-2 z"
       id="path3850"
       inkscape:connector-curvature="0" />
    <path
       style="fill:#908f97;fill-opacity:1;stroke:#000000;stroke-width:4;stroke-linecap:round;stroke-linejoin:round;stroke-miterlimit:4;stroke-opacity:1;stroke-dasharray:none"
       d="M 382,526.36218 241.07143,511.29075 236,492.36218 l 141,13 z"
       id="path3004"
       inkscape:connector-curvature="0"
       sodipodi:nodetypes="ccccc" />
    <path
       style="fill:#1aea7c;fill-opacity:1;stroke:#000000;stroke-width:4;stroke-linecap:round;stroke-linejoin:round;stroke-miterlimit:4;stroke-opacity:1;stroke-dasharray:none"
       d="m 354,474.36218 -20,-2 1,-7 20,2 z"
       id="path3946"
       inkscape:connector-curvature="0" />
    <path
       style="fill:#5e2167;fill-opacity:1;stroke:#000000;stroke-width:4;stroke-linecap:round;stroke-linejoin:round;stroke-miterlimit:4;stroke-opacity:1;stroke-dasharray:none"
       d="m 283,393.36218 90,3 -1,4 -90,-3 z"
       id="path3948"
       inkscape:connector-curvature="0" />
  </g>
</svg>
